{
    "swagger": "2.0",
    "info": {
        "contact": {}
    },
    "paths": {
        "/v1/customer": {
            "post": {
                "description": "this function includes all customers",
                "consumes": [
                    "application/json"
                ],
                "produces": [
                    "application/json"
                ],
                "tags": [
                    "Customer"
                ],
                "summary": "this function creates the customers",
                "parameters": [
                    {
                        "description": "Customer",
                        "name": "body",
                        "in": "body",
                        "required": true,
                        "schema": {
                            "$ref": "#/definitions/models.Customer"
                        }
                    }
                ],
                "responses": {
                    "200": {
                        "description": "OK",
                        "schema": {
                            "$ref": "#/definitions/customer.CustomerResponse"
                        }
                    },
                    "400": {
                        "description": "ErrorResponse"
                    }
                }
            }
        },
        "/v1/customer/post/review/{id}": {
            "get": {
                "description": "this function select the customers posts",
                "consumes": [
                    "application/json"
                ],
                "produces": [
                    "application/json"
                ],
                "tags": [
                    "Customer"
                ],
                "summary": "this function getting the customers posts",
                "parameters": [
                    {
                        "type": "integer",
                        "description": "id",
                        "name": "id",
                        "in": "path",
                        "required": true
                    }
                ],
                "responses": {
                    "200": {
                        "description": "OK",
                        "schema": {
                            "$ref": "#/definitions/customer.CustomerInfo"
                        }
                    },
                    "400": {
                        "description": "ErrorResponse"
                    }
                }
            }
        },
        "/v1/customer/register": {
            "post": {
                "description": "this registers customer",
                "consumes": [
                    "application/json"
                ],
                "produces": [
                    "application/json"
                ],
                "tags": [
                    "Customer"
                ],
                "summary": "register customer",
                "parameters": [
                    {
                        "description": "Register customer",
                        "name": "body",
                        "in": "body",
                        "required": true,
                        "schema": {
                            "$ref": "#/definitions/models.CustomerRegister"
                        }
                    }
                ],
                "responses": {
                    "201": {
                        "description": "Created",
                        "schema": {
                            "$ref": "#/definitions/models.Error"
                        }
                    },
                    "500": {
                        "description": "Internal Server Error",
                        "schema": {
                            "$ref": "#/definitions/models.Error"
                        }
                    }
                }
            }
        },
        "/v1/customer/update": {
            "patch": {
                "description": "this function updating the customers",
                "consumes": [
                    "application/json"
                ],
                "produces": [
                    "application/json"
                ],
                "tags": [
                    "Customer"
                ],
                "summary": "this function update",
                "parameters": [
                    {
                        "description": "Update Customer",
                        "name": "customerbody",
                        "in": "body",
                        "required": true,
                        "schema": {
                            "$ref": "#/definitions/customer.CustomerUp"
                        }
                    }
                ],
                "responses": {
                    "200": {
                        "description": "OK",
                        "schema": {
                            "$ref": "#/definitions/customer.CustomerResponse"
                        }
                    },
                    "400": {
                        "description": "ErrorResponse"
                    }
                }
            }
        },
        "/v1/customer/{id}": {
            "delete": {
                "description": "this function delting customer",
                "consumes": [
                    "application/json"
                ],
                "produces": [
                    "application/json"
                ],
                "tags": [
                    "Customer"
                ],
                "summary": "this function delete",
                "parameters": [
                    {
                        "type": "integer",
                        "description": "delete Customer",
                        "name": "id",
                        "in": "path",
                        "required": true
                    }
                ],
                "responses": {
                    "200": {
                        "description": "OK",
                        "schema": {
                            "$ref": "#/definitions/customer.CustomerResponse"
                        }
                    },
                    "400": {
                        "description": "ErrorResponse"
                    }
                }
            }
        },
        "/v1/posts": {
            "post": {
                "description": "post service create",
                "consumes": [
                    "application/json"
                ],
                "produces": [
                    "application/json"
                ],
                "tags": [
                    "Post"
                ],
                "summary": "Create Post",
                "parameters": [
                    {
                        "description": "Post",
                        "name": "post",
                        "in": "body",
                        "required": true,
                        "schema": {
                            "$ref": "#/definitions/models.Post"
                        }
                    }
                ],
                "responses": {
                    "200": {
                        "description": "OK",
                        "schema": {
                            "$ref": "#/definitions/post.PostResp"
                        }
                    },
                    "400": {
                        "description": "Errorresponse"
                    }
                }
            }
        },
        "/v1/posts/review/delete/{id}": {
            "delete": {
                "description": "this deleting information of post",
                "consumes": [
                    "application/json"
                ],
                "produces": [
                    "application/json"
                ],
                "tags": [
                    "Post"
                ],
                "summary": "Delete Post",
                "parameters": [
                    {
                        "type": "integer",
                        "description": "id",
                        "name": "id",
                        "in": "path",
                        "required": true
                    }
                ],
                "responses": {
                    "200": {
                        "description": "OK",
                        "schema": {
                            "$ref": "#/definitions/post.Empty"
                        }
                    },
                    "400": {
                        "description": "Errorresponse"
                    }
                }
            }
        },
        "/v1/posts/review/get/{id}": {
            "get": {
                "description": "this will display the post review information",
                "consumes": [
                    "application/json"
                ],
                "produces": [
                    "application/json"
                ],
                "tags": [
                    "Post"
                ],
                "summary": "Get Post Review",
                "parameters": [
                    {
                        "type": "integer",
                        "description": "id",
                        "name": "id",
                        "in": "path",
                        "required": true
                    }
                ],
                "responses": {
                    "200": {
                        "description": "OK",
                        "schema": {
                            "$ref": "#/definitions/post.PostInfo"
                        }
                    },
                    "400": {
                        "description": "Errorresponse"
                    }
                }
            }
        },
        "/v1/posts/update": {
            "patch": {
                "description": "this updating information of post",
                "consumes": [
                    "application/json"
                ],
                "produces": [
                    "application/json"
                ],
                "tags": [
                    "Post"
                ],
                "summary": "Update Post",
                "parameters": [
                    {
                        "description": "Post",
                        "name": "postbody",
                        "in": "body",
                        "required": true,
                        "schema": {
                            "$ref": "#/definitions/post.PostUp"
                        }
                    }
                ],
                "responses": {
                    "200": {
                        "description": "OK",
                        "schema": {
                            "$ref": "#/definitions/post.PostReq"
                        }
                    },
                    "400": {
                        "description": "Errorresponse"
                    },
                    "500": {
                        "description": "Errorresponse"
                    }
                }
            }
        },
        "/v1/review": {
            "post": {
                "description": "review service create",
                "consumes": [
                    "application/json"
                ],
                "produces": [
                    "application/json"
                ],
                "tags": [
                    "Review"
                ],
                "summary": "Create Review",
                "parameters": [
                    {
                        "description": "Review",
                        "name": "body",
                        "in": "body",
                        "required": true,
                        "schema": {
                            "$ref": "#/definitions/review.ReviewRequest"
                        }
                    }
                ],
                "responses": {
                    "200": {
                        "description": "OK",
                        "schema": {
                            "$ref": "#/definitions/review.ReviewResponse"
                        }
                    },
                    "400": {
                        "description": "Errorresponse"
                    }
                }
            }
        },
        "/v1/review/delete/{id}": {
            "delete": {
                "description": "this deleting information of review",
                "consumes": [
                    "application/json"
                ],
                "produces": [
                    "application/json"
                ],
                "tags": [
                    "Review"
                ],
                "summary": "Delete Review",
                "parameters": [
                    {
                        "type": "integer",
                        "description": "id",
                        "name": "id",
                        "in": "path",
                        "required": true
                    }
                ],
                "responses": {
                    "200": {
                        "description": "OK",
                        "schema": {
                            "$ref": "#/definitions/review.Empty"
                        }
                    },
                    "400": {
                        "description": "ErrorResponse"
                    }
                }
            }
        },
        "/v1/review/update": {
            "patch": {
                "description": "this updating information of review",
                "consumes": [
                    "application/json"
                ],
                "produces": [
                    "application/json"
                ],
                "tags": [
                    "Review"
                ],
                "summary": "Update Review",
                "parameters": [
                    {
                        "description": "Review",
                        "name": "body",
                        "in": "body",
                        "required": true,
                        "schema": {
                            "$ref": "#/definitions/review.ReviewUp"
                        }
                    }
                ],
                "responses": {
                    "200": {
                        "description": "OK",
                        "schema": {
                            "$ref": "#/definitions/review.ReviewResponse"
                        }
                    },
                    "400": {
                        "description": "Errorresponse"
                    },
                    "500": {
                        "description": "Errorresponse"
                    }
                }
            }
        },
        "/v1/review/{id}": {
            "get": {
                "description": "this will display the review information",
                "consumes": [
                    "application/json"
                ],
                "produces": [
                    "application/json"
                ],
                "tags": [
                    "Review"
                ],
                "summary": "Get Review",
                "parameters": [
                    {
                        "type": "integer",
                        "description": "id",
                        "name": "id",
                        "in": "path",
                        "required": true
                    }
                ],
                "responses": {
                    "200": {
                        "description": "OK",
                        "schema": {
                            "$ref": "#/definitions/review.Reviews"
                        }
                    },
                    "400": {
                        "description": "Errorresponse"
                    }
                }
            }
        },
        "/v1/reviews": {
            "get": {
                "description": "PageList",
                "consumes": [
                    "application/json"
                ],
                "produces": [
                    "application/json"
                ],
                "tags": [
                    "Review"
                ],
                "summary": "PageList",
                "parameters": [
                    {
                        "type": "string",
                        "description": "Page",
                        "name": "page",
                        "in": "query"
                    },
                    {
                        "type": "string",
                        "description": "Limit",
                        "name": "limit",
                        "in": "query"
                    }
                ],
                "responses": {
                    "200": {
                        "description": "OK",
                        "schema": {
                            "$ref": "#/definitions/review.Reviews"
                        }
                    },
                    "400": {
                        "description": "Errorresponse"
                    }
                }
            }
        },
        "/verify/{email}/{code}": {
            "get": {
                "description": "Verifys customer",
                "consumes": [
                    "application/json"
                ],
                "produces": [
                    "application/json"
                ],
                "tags": [
                    "Customer"
                ],
                "summary": "Verify customer",
                "parameters": [
                    {
                        "type": "string",
                        "description": "email",
                        "name": "email",
                        "in": "path",
                        "required": true
                    },
                    {
                        "type": "string",
                        "description": "code",
                        "name": "code",
                        "in": "path",
                        "required": true
                    }
                ],
                "responses": {
                    "200": {
                        "description": "OK",
                        "schema": {
                            "$ref": "#/definitions/models.VerifyResponse"
                        }
                    }
                }
            }
        }
    },
    "definitions": {
        "customer.Address": {
            "type": "object",
            "properties": {
                "country": {
                    "type": "string"
                },
                "customer_id": {
                    "type": "string"
                },
                "id": {
                    "type": "string"
                },
                "street": {
                    "type": "string"
                }
            }
        },
        "customer.CustomerInfo": {
            "type": "object",
            "properties": {
                "addresses": {
                    "type": "array",
                    "items": {
                        "$ref": "#/definitions/customer.Address"
                    }
                },
                "bio": {
                    "type": "string"
                },
                "code": {
                    "type": "string"
                },
                "created_at": {
                    "type": "string"
                },
                "email": {
                    "type": "string"
                },
                "firstName": {
                    "type": "string"
                },
                "id": {
                    "type": "string"
                },
                "lastName": {
                    "type": "string"
                },
                "password": {
                    "type": "string"
                },
                "phone_number": {
                    "type": "string"
                },
                "posts": {
                    "type": "array",
                    "items": {
                        "$ref": "#/definitions/customer.Post"
                    }
                },
                "reviews": {
                    "type": "array",
                    "items": {
                        "$ref": "#/definitions/customer.ReviewResponse"
                    }
                },
                "updated_at": {
                    "type": "string"
                }
            }
        },
        "customer.CustomerResponse": {
            "type": "object",
            "properties": {
                "addresses": {
                    "type": "array",
                    "items": {
                        "$ref": "#/definitions/customer.Address"
                    }
                },
                "bio": {
                    "type": "string"
                },
                "code": {
                    "type": "string"
                },
                "created_at": {
                    "type": "string"
                },
                "email": {
                    "type": "string"
                },
                "firstName": {
                    "type": "string"
                },
                "id": {
                    "type": "string"
                },
                "lastName": {
                    "type": "string"
                },
                "password": {
                    "type": "string"
                },
                "phone_number": {
                    "type": "string"
                },
                "updated_at": {
                    "type": "string"
                }
            }
        },
        "customer.CustomerUp": {
            "type": "object",
            "properties": {
                "addresses": {
                    "type": "array",
                    "items": {
                        "$ref": "#/definitions/customer.Address"
                    }
                },
                "bio": {
                    "type": "string"
                },
                "code": {
                    "type": "string"
                },
                "email": {
                    "type": "string"
                },
                "firstName": {
                    "type": "string"
                },
                "id": {
                    "type": "string"
                },
                "lastName": {
                    "type": "string"
                },
                "password": {
                    "type": "string"
                },
                "phone_number": {
                    "type": "string"
                }
            }
        },
        "customer.Media": {
            "type": "object",
            "properties": {
                "id": {
                    "type": "string"
                },
                "link": {
                    "type": "string"
                },
                "name": {
                    "type": "string"
                },
                "post_id": {
                    "type": "string"
                },
                "type": {
                    "type": "string"
                }
            }
        },
        "customer.Post": {
            "type": "object",
            "properties": {
                "customer_id": {
                    "type": "string"
                },
                "description": {
                    "type": "string"
                },
                "id": {
                    "type": "string"
                },
                "medias": {
                    "type": "array",
                    "items": {
                        "$ref": "#/definitions/customer.Media"
                    }
                },
                "name": {
                    "type": "string"
                }
            }
        },
        "customer.ReviewResponse": {
            "type": "object",
            "properties": {
                "created_at": {
                    "type": "string"
                },
                "customer_id": {
                    "type": "string"
                },
                "description": {
                    "type": "string"
                },
                "id": {
                    "type": "string"
                },
                "name": {
                    "type": "string"
                },
                "post_id": {
                    "type": "string"
                },
                "rating": {
                    "type": "integer"
                },
                "udpated_at": {
                    "type": "string"
                }
            }
        },
        "models.Address": {
            "type": "object",
            "properties": {
                "country": {
                    "type": "string"
                },
                "street": {
                    "type": "string"
                }
            }
        },
        "models.AddressResponse": {
            "type": "object",
            "properties": {
                "country": {
                    "type": "string"
                },
                "id": {
                    "type": "string"
                },
                "ownerId": {
                    "type": "string"
                },
                "street": {
                    "type": "string"
                }
            }
        },
        "models.Customer": {
            "type": "object",
            "properties": {
                "addresses": {
                    "type": "array",
                    "items": {
                        "$ref": "#/definitions/models.Address"
                    }
                },
                "bio": {
                    "type": "string"
                },
                "email": {
                    "type": "string"
                },
                "firstName": {
                    "type": "string"
                },
                "lastName": {
                    "type": "string"
                },
                "password": {
                    "type": "string"
                },
                "phoneNumber": {
                    "type": "string"
                }
            }
        },
        "models.CustomerRegister": {
            "type": "object",
            "properties": {
                "bio": {
                    "type": "string"
                },
                "email": {
                    "type": "string"
                },
                "firstName": {
                    "type": "string"
                },
                "lastName": {
                    "type": "string"
                },
                "password": {
                    "type": "string"
                },
                "phoneNumber": {
                    "type": "string"
                }
            }
        },
        "models.Error": {
            "type": "object",
            "properties": {
                "code": {
                    "type": "integer"
                },
                "description": {
                    "type": "string"
                },
                "error": {}
            }
        },
        "models.Media": {
            "type": "object",
            "properties": {
                "link": {
                    "type": "string"
                },
                "name": {
                    "type": "string"
                },
                "type": {
                    "type": "string"
                }
            }
        },
        "models.Post": {
            "type": "object",
            "properties": {
                "description": {
                    "type": "string"
                },
                "medias": {
                    "type": "array",
                    "items": {
                        "$ref": "#/definitions/models.Media"
                    }
                },
                "name": {
                    "type": "string"
                },
                "owner_id": {
                    "type": "string"
                }
            }
        },
        "models.VerifyResponse": {
            "type": "object",
            "properties": {
                "addresses": {
                    "type": "array",
                    "items": {
                        "$ref": "#/definitions/models.AddressResponse"
                    }
                },
                "bio": {
                    "type": "string"
                },
                "email": {
                    "type": "string"
                },
                "firstName": {
                    "type": "string"
                },
                "id": {
                    "type": "string"
                },
                "jwt": {
                    "type": "string"
                },
                "lastName": {
                    "type": "string"
                },
                "phoneNumber": {
                    "type": "string"
                },
                "refreshToken": {
                    "type": "string"
                }
            }
        },
        "post.Empty": {
            "type": "object"
        },
        "post.Media": {
            "type": "object",
            "properties": {
                "id": {
                    "type": "string"
                },
                "link": {
                    "type": "string"
                },
                "name": {
                    "type": "string"
                },
                "post_id": {
                    "type": "string"
                },
                "type": {
                    "type": "string"
                }
            }
        },
        "post.MediaReq": {
            "type": "object",
            "properties": {
                "link": {
                    "type": "string"
                },
                "name": {
                    "type": "string"
                },
                "post_id": {
                    "type": "string"
                },
                "type": {
                    "type": "string"
                }
            }
        },
        "post.PostInfo": {
            "type": "object",
            "properties": {
                "created_at": {
                    "type": "string"
                },
                "customer_id": {
                    "type": "string"
                },
                "description": {
                    "type": "string"
                },
                "id": {
                    "type": "string"
                },
                "medias": {
                    "type": "array",
                    "items": {
                        "$ref": "#/definitions/post.Media"
                    }
                },
                "name": {
                    "type": "string"
                },
                "reviews": {
                    "type": "array",
                    "items": {
                        "$ref": "#/definitions/post.Review"
                    }
                },
                "updated_at": {
                    "type": "string"
                }
            }
        },
        "post.PostReq": {
            "type": "object",
            "properties": {
                "customer_id": {
                    "type": "string"
                },
                "description": {
                    "type": "string"
                },
                "medias": {
                    "type": "array",
                    "items": {
                        "$ref": "#/definitions/post.MediaReq"
                    }
                },
                "name": {
                    "type": "string"
                }
            }
        },
        "post.PostResp": {
            "type": "object",
            "properties": {
                "created_at": {
                    "type": "string"
                },
                "customer_id": {
                    "type": "string"
                },
                "description": {
                    "type": "string"
                },
                "id": {
                    "type": "string"
                },
                "medias": {
                    "type": "array",
                    "items": {
                        "$ref": "#/definitions/post.Media"
                    }
                },
                "name": {
                    "type": "string"
                },
                "updated_at": {
                    "type": "string"
                }
            }
        },
        "post.PostUp": {
            "type": "object",
            "properties": {
                "customer_id": {
                    "type": "string"
                },
                "description": {
                    "type": "string"
                },
                "id": {
                    "type": "string"
                },
                "medias": {
                    "type": "array",
                    "items": {
                        "$ref": "#/definitions/post.Media"
                    }
                },
                "name": {
                    "type": "string"
                }
            }
        },
        "post.Review": {
            "type": "object",
            "properties": {
                "created_at": {
                    "type": "string"
                },
                "customer_id": {
                    "type": "string"
                },
                "description": {
                    "type": "string"
                },
                "id": {
                    "type": "string"
                },
                "name": {
                    "type": "string"
                },
                "post_id": {
                    "type": "string"
                },
                "rating": {
                    "type": "integer"
                },
                "udpated_at": {
                    "type": "string"
                }
            }
        },
        "review.Empty": {
            "type": "object"
        },
        "review.ReviewRequest": {
            "type": "object",
            "properties": {
                "customer_id": {
                    "type": "string"
                },
                "description": {
                    "type": "string"
                },
                "name": {
                    "type": "string"
                },
                "post_id": {
                    "type": "string"
                },
                "rating": {
                    "type": "integer"
                }
            }
        },
        "review.ReviewResponse": {
            "type": "object",
            "properties": {
                "created_at": {
                    "type": "string"
                },
                "customer_id": {
                    "type": "string"
                },
                "description": {
                    "type": "string"
                },
                "id": {
                    "type": "string"
                },
                "name": {
                    "type": "string"
                },
                "post_id": {
                    "type": "string"
                },
                "rating": {
                    "type": "integer"
                },
                "udpated_at": {
                    "type": "string"
                }
            }
        },
        "review.ReviewUp": {
            "type": "object",
            "properties": {
                "description": {
                    "type": "string"
                },
                "id": {
                    "type": "string"
                },
                "name": {
                    "type": "string"
                },
                "rating": {
                    "type": "integer"
                }
            }
        },
        "review.Reviews": {
            "type": "object",
            "properties": {
                "reviews": {
                    "type": "array",
                    "items": {
                        "$ref": "#/definitions/review.ReviewResponse"
                    }
                }
            }
        }
    }
}